module gitlab.com/akita/akita/v3

require (
	github.com/go-sql-driver/mysql v1.7.1
	github.com/golang/mock v1.6.0
	github.com/google/pprof v0.0.0-20230510103437-eeec1cb781c3
	github.com/gorilla/mux v1.8.0
	github.com/mattn/go-sqlite3 v1.14.16
	github.com/onsi/ginkgo/v2 v2.9.5
	github.com/onsi/gomega v1.27.6
	github.com/rs/xid v1.5.0
	github.com/shirou/gopsutil v3.21.11+incompatible
	github.com/syifan/goseth v0.1.1
	github.com/tebeka/atexit v0.3.0
)

require (
	github.com/go-logr/logr v1.2.4 // indirect
	github.com/go-ole/go-ole v1.2.6 // indirect
	github.com/go-task/slim-sprig v0.0.0-20230315185526-52ccab3ef572 // indirect
	github.com/google/go-cmp v0.5.9 // indirect
	github.com/kr/pretty v0.1.0 // indirect
	github.com/tklauser/go-sysconf v0.3.11 // indirect
	github.com/tklauser/numcpus v0.6.0 // indirect
	github.com/yusufpapurcu/wmi v1.2.2 // indirect
	golang.org/x/net v0.10.0 // indirect
	golang.org/x/sys v0.8.0 // indirect
	golang.org/x/text v0.9.0 // indirect
	golang.org/x/tools v0.9.1 // indirect
	gopkg.in/check.v1 v1.0.0-20180628173108-788fd7840127 // indirect
	gopkg.in/yaml.v3 v3.0.1 // indirect
)

// replace github.com/syifan/goseth => ../goseth

go 1.20
